{
  "configVersion": 2,
  "packages": [
    {
      "name": "android_intent",
      "rootUri": "file:///Users/itrends/Develoment/flutter/.pub-cache/hosted/pub.dartlang.org/android_intent-2.0.2",
      "packageUri": "lib/",
      "languageVersion": "2.12"
    },
    {
      "name": "async",
      "rootUri": "file:///Users/itrends/Develoment/flutter/.pub-cache/hosted/pub.dartlang.org/async-2.8.1",
      "packageUri": "lib/",
      "languageVersion": "2.12"
    },
    {
      "name": "audioplayer",
      "rootUri": "file:///Users/itrends/Develoment/flutter/.pub-cache/hosted/pub.dartlang.org/audioplayer-0.8.1",
      "packageUri": "lib/",
      "languageVersion": "2.0"
    },
    {
      "name": "background_location",
      "rootUri": "file:///Users/itrends/Develoment/flutter/.pub-cache/hosted/pub.dartlang.org/background_location-0.8.1",
      "packageUri": "lib/",
      "languageVersion": "2.12"
    },
    {
      "name": "basic_utils",
      "rootUri": "file:///Users/itrends/Develoment/flutter/.pub-cache/hosted/pub.dartlang.org/basic_utils-3.1.0",
      "packageUri": "lib/",
      "languageVersion": "2.12"
    },
    {
      "name": "boolean_selector",
      "rootUri": "file:///Users/itrends/Develoment/flutter/.pub-cache/hosted/pub.dartlang.org/boolean_selector-2.1.0",
      "packageUri": "lib/",
      "languageVersion": "2.12"
    },
    {
      "name": "cached_network_image",
      "rootUri": "file:///Users/itrends/Develoment/flutter/.pub-cache/hosted/pub.dartlang.org/cached_network_image-3.1.0",
      "packageUri": "lib/",
      "languageVersion": "2.12"
    },
    {
      "name": "cached_network_image_platform_interface",
      "rootUri": "file:///Users/itrends/Develoment/flutter/.pub-cache/hosted/pub.dartlang.org/cached_network_image_platform_interface-1.0.0",
      "packageUri": "lib/",
      "languageVersion": "2.12"
    },
    {
      "name": "cached_network_image_web",
      "rootUri": "file:///Users/itrends/Develoment/flutter/.pub-cache/hosted/pub.dartlang.org/cached_network_image_web-1.0.1",
      "packageUri": "lib/",
      "languageVersion": "2.12"
    },
    {
      "name": "characters",
      "rootUri": "file:///Users/itrends/Develoment/flutter/.pub-cache/hosted/pub.dartlang.org/characters-1.1.0",
      "packageUri": "lib/",
      "languageVersion": "2.12"
    },
    {
      "name": "charcode",
      "rootUri": "file:///Users/itrends/Develoment/flutter/.pub-cache/hosted/pub.dartlang.org/charcode-1.3.1",
      "packageUri": "lib/",
      "languageVersion": "2.12"
    },
    {
      "name": "circular_profile_avatar",
      "rootUri": "file:///Users/itrends/Develoment/flutter/.pub-cache/hosted/pub.dartlang.org/circular_profile_avatar-2.0.5",
      "packageUri": "lib/",
      "languageVersion": "2.12"
    },
    {
      "name": "clock",
      "rootUri": "file:///Users/itrends/Develoment/flutter/.pub-cache/hosted/pub.dartlang.org/clock-1.1.0",
      "packageUri": "lib/",
      "languageVersion": "2.12"
    },
    {
      "name": "collection",
      "rootUri": "file:///Users/itrends/Develoment/flutter/.pub-cache/hosted/pub.dartlang.org/collection-1.15.0",
      "packageUri": "lib/",
      "languageVersion": "2.12"
    },
    {
      "name": "cookie_jar",
      "rootUri": "file:///Users/itrends/Develoment/flutter/.pub-cache/hosted/pub.dartlang.org/cookie_jar-3.0.1",
      "packageUri": "lib/",
      "languageVersion": "2.12"
    },
    {
      "name": "crypto",
      "rootUri": "file:///Users/itrends/Develoment/flutter/.pub-cache/hosted/pub.dartlang.org/crypto-3.0.1",
      "packageUri": "lib/",
      "languageVersion": "2.12"
    },
    {
      "name": "cupertino_icons",
      "rootUri": "file:///Users/itrends/Develoment/flutter/.pub-cache/hosted/pub.dartlang.org/cupertino_icons-1.0.0",
      "packageUri": "lib/",
      "languageVersion": "2.0"
    },
    {
      "name": "dio",
      "rootUri": "file:///Users/itrends/Develoment/flutter/.pub-cache/hosted/pub.dartlang.org/dio-4.0.0",
      "packageUri": "lib/",
      "languageVersion": "2.12"
    },
    {
      "name": "dio_cookie_manager",
      "rootUri": "file:///Users/itrends/Develoment/flutter/.pub-cache/hosted/pub.dartlang.org/dio_cookie_manager-2.0.0",
      "packageUri": "lib/",
      "languageVersion": "2.12"
    },
    {
      "name": "double_back_to_close",
      "rootUri": "file:///Users/itrends/Develoment/flutter/.pub-cache/hosted/pub.dartlang.org/double_back_to_close-2.0.0",
      "packageUri": "lib/",
      "languageVersion": "2.12"
    },
    {
      "name": "email_validator",
      "rootUri": "file:///Users/itrends/Develoment/flutter/.pub-cache/hosted/pub.dartlang.org/email_validator-2.0.1",
      "packageUri": "lib/",
      "languageVersion": "2.12"
    },
    {
      "name": "fake_async",
      "rootUri": "file:///Users/itrends/Develoment/flutter/.pub-cache/hosted/pub.dartlang.org/fake_async-1.2.0",
      "packageUri": "lib/",
      "languageVersion": "2.12"
    },
    {
      "name": "ffi",
      "rootUri": "file:///Users/itrends/Develoment/flutter/.pub-cache/hosted/pub.dartlang.org/ffi-1.1.2",
      "packageUri": "lib/",
      "languageVersion": "2.12"
    },
    {
      "name": "file",
      "rootUri": "file:///Users/itrends/Develoment/flutter/.pub-cache/hosted/pub.dartlang.org/file-6.1.2",
      "packageUri": "lib/",
      "languageVersion": "2.12"
    },
    {
      "name": "file_picker",
      "rootUri": "file:///Users/itrends/Develoment/flutter/.pub-cache/hosted/pub.dartlang.org/file_picker-3.0.4",
      "packageUri": "lib/",
      "languageVersion": "2.12"
    },
    {
      "name": "flinq",
      "rootUri": "file:///Users/itrends/Develoment/flutter/.pub-cache/hosted/pub.dartlang.org/flinq-2.0.2",
      "packageUri": "lib/",
      "languageVersion": "2.12"
    },
    {
      "name": "flutter",
      "rootUri": "file:///Users/itrends/Develoment/flutter/packages/flutter",
      "packageUri": "lib/",
      "languageVersion": "2.12"
    },
    {
      "name": "flutter_blurhash",
      "rootUri": "file:///Users/itrends/Develoment/flutter/.pub-cache/hosted/pub.dartlang.org/flutter_blurhash-0.6.0",
      "packageUri": "lib/",
      "languageVersion": "2.12"
    },
    {
      "name": "flutter_cache_manager",
      "rootUri": "file:///Users/itrends/Develoment/flutter/.pub-cache/hosted/pub.dartlang.org/flutter_cache_manager-3.1.2",
      "packageUri": "lib/",
      "languageVersion": "2.12"
    },
    {
      "name": "flutter_datetime_picker",
      "rootUri": "file:///Users/itrends/Develoment/flutter/.pub-cache/hosted/pub.dartlang.org/flutter_datetime_picker-1.5.1",
      "packageUri": "lib/",
      "languageVersion": "2.12"
    },
    {
      "name": "flutter_local_notifications",
      "rootUri": "file:///Users/itrends/Develoment/flutter/.pub-cache/hosted/pub.dartlang.org/flutter_local_notifications-7.0.0",
      "packageUri": "lib/",
      "languageVersion": "2.12"
    },
    {
      "name": "flutter_local_notifications_platform_interface",
      "rootUri": "file:///Users/itrends/Develoment/flutter/.pub-cache/hosted/pub.dartlang.org/flutter_local_notifications_platform_interface-4.0.1",
      "packageUri": "lib/",
      "languageVersion": "2.12"
    },
    {
      "name": "flutter_localizations",
      "rootUri": "file:///Users/itrends/Develoment/flutter/packages/flutter_localizations",
      "packageUri": "lib/",
      "languageVersion": "2.12"
    },
    {
      "name": "flutter_mapbox_navigation",
      "rootUri": "file:///Users/itrends/Develoment/flutter/.pub-cache/hosted/pub.dartlang.org/flutter_mapbox_navigation-0.0.26",
      "packageUri": "lib/",
      "languageVersion": "2.12"
    },
    {
      "name": "flutter_plugin_android_lifecycle",
      "rootUri": "file:///Users/itrends/Develoment/flutter/.pub-cache/hosted/pub.dartlang.org/flutter_plugin_android_lifecycle-2.0.2",
      "packageUri": "lib/",
      "languageVersion": "2.12"
    },
    {
      "name": "flutter_svg",
      "rootUri": "file:///Users/itrends/Develoment/flutter/.pub-cache/hosted/pub.dartlang.org/flutter_svg-0.22.0",
      "packageUri": "lib/",
      "languageVersion": "2.12"
    },
    {
      "name": "flutter_test",
      "rootUri": "file:///Users/itrends/Develoment/flutter/packages/flutter_test",
      "packageUri": "lib/",
      "languageVersion": "2.12"
    },
    {
      "name": "flutter_web_plugins",
      "rootUri": "file:///Users/itrends/Develoment/flutter/packages/flutter_web_plugins",
      "packageUri": "lib/",
      "languageVersion": "2.12"
    },
    {
      "name": "fluttertoast",
      "rootUri": "file:///Users/itrends/Develoment/flutter/.pub-cache/hosted/pub.dartlang.org/fluttertoast-4.0.1",
      "packageUri": "lib/",
      "languageVersion": "2.0"
    },
    {
      "name": "font_awesome_flutter",
      "rootUri": "file:///Users/itrends/Develoment/flutter/.pub-cache/hosted/pub.dartlang.org/font_awesome_flutter-9.1.0",
      "packageUri": "lib/",
      "languageVersion": "2.12"
    },
    {
      "name": "geocoding",
      "rootUri": "file:///Users/itrends/Develoment/flutter/.pub-cache/hosted/pub.dartlang.org/geocoding-2.0.1",
      "packageUri": "lib/",
      "languageVersion": "2.12"
    },
    {
      "name": "geocoding_platform_interface",
      "rootUri": "file:///Users/itrends/Develoment/flutter/.pub-cache/hosted/pub.dartlang.org/geocoding_platform_interface-2.0.1",
      "packageUri": "lib/",
      "languageVersion": "2.12"
    },
    {
      "name": "geolocator",
      "rootUri": "file:///Users/itrends/Develoment/flutter/.pub-cache/hosted/pub.dartlang.org/geolocator-7.7.0",
      "packageUri": "lib/",
      "languageVersion": "2.12"
    },
    {
      "name": "geolocator_android",
      "rootUri": "file:///Users/itrends/Develoment/flutter/.pub-cache/hosted/pub.dartlang.org/geolocator_android-2.1.0",
      "packageUri": "lib/",
      "languageVersion": "2.12"
    },
    {
      "name": "geolocator_apple",
      "rootUri": "file:///Users/itrends/Develoment/flutter/.pub-cache/hosted/pub.dartlang.org/geolocator_apple-1.2.1",
      "packageUri": "lib/",
      "languageVersion": "2.12"
    },
    {
      "name": "geolocator_platform_interface",
      "rootUri": "file:///Users/itrends/Develoment/flutter/.pub-cache/hosted/pub.dartlang.org/geolocator_platform_interface-2.3.6",
      "packageUri": "lib/",
      "languageVersion": "2.12"
    },
    {
      "name": "geolocator_web",
      "rootUri": "file:///Users/itrends/Develoment/flutter/.pub-cache/hosted/pub.dartlang.org/geolocator_web-2.0.6",
      "packageUri": "lib/",
      "languageVersion": "2.12"
    },
    {
      "name": "google_directions_api",
      "rootUri": "file:///Users/itrends/Develoment/flutter/.pub-cache/hosted/pub.dartlang.org/google_directions_api-0.9.0",
      "packageUri": "lib/",
      "languageVersion": "2.12"
    },
    {
      "name": "google_maps_flutter",
      "rootUri": "file:///Users/itrends/Develoment/flutter/.pub-cache/hosted/pub.dartlang.org/google_maps_flutter-2.0.9",
      "packageUri": "lib/",
      "languageVersion": "2.12"
    },
    {
      "name": "google_maps_flutter_platform_interface",
      "rootUri": "file:///Users/itrends/Develoment/flutter/.pub-cache/hosted/pub.dartlang.org/google_maps_flutter_platform_interface-2.1.3",
      "packageUri": "lib/",
      "languageVersion": "2.12"
    },
    {
      "name": "google_polyline_algorithm",
      "rootUri": "file:///Users/itrends/Develoment/flutter/.pub-cache/hosted/pub.dartlang.org/google_polyline_algorithm-3.1.0",
      "packageUri": "lib/",
      "languageVersion": "2.12"
    },
    {
      "name": "hive",
      "rootUri": "file:///Users/itrends/Develoment/flutter/.pub-cache/hosted/pub.dartlang.org/hive-1.6.0-nullsafety.2",
      "packageUri": "lib/",
      "languageVersion": "2.12"
    },
    {
      "name": "hive_flutter",
      "rootUri": "file:///Users/itrends/Develoment/flutter/.pub-cache/hosted/pub.dartlang.org/hive_flutter-0.2.1",
      "packageUri": "lib/",
      "languageVersion": "2.2"
    },
    {
      "name": "http",
      "rootUri": "file:///Users/itrends/Develoment/flutter/.pub-cache/hosted/pub.dartlang.org/http-0.13.3",
      "packageUri": "lib/",
      "languageVersion": "2.12"
    },
    {
      "name": "http_parser",
      "rootUri": "file:///Users/itrends/Develoment/flutter/.pub-cache/hosted/pub.dartlang.org/http_parser-4.0.0",
      "packageUri": "lib/",
      "languageVersion": "2.12"
    },
    {
      "name": "intl",
      "rootUri": "file:///Users/itrends/Develoment/flutter/.pub-cache/hosted/pub.dartlang.org/intl-0.17.0",
      "packageUri": "lib/",
      "languageVersion": "2.12"
    },
    {
      "name": "j_location_picker",
      "rootUri": "file:///Users/itrends/Develoment/flutter/.pub-cache/hosted/pub.dartlang.org/j_location_picker-1.2.0",
      "packageUri": "lib/",
      "languageVersion": "2.7"
    },
    {
      "name": "js",
      "rootUri": "file:///Users/itrends/Develoment/flutter/.pub-cache/hosted/pub.dartlang.org/js-0.6.3",
      "packageUri": "lib/",
      "languageVersion": "2.12"
    },
    {
      "name": "json_annotation",
      "rootUri": "file:///Users/itrends/Develoment/flutter/.pub-cache/hosted/pub.dartlang.org/json_annotation-4.0.1",
      "packageUri": "lib/",
      "languageVersion": "2.12"
    },
    {
      "name": "latlng",
      "rootUri": "file:///Users/itrends/Develoment/flutter/.pub-cache/hosted/pub.dartlang.org/latlng-0.1.0",
      "packageUri": "lib/",
      "languageVersion": "2.12"
    },
    {
      "name": "logging",
      "rootUri": "file:///Users/itrends/Develoment/flutter/.pub-cache/hosted/pub.dartlang.org/logging-1.0.1",
      "packageUri": "lib/",
      "languageVersion": "2.12"
    },
    {
      "name": "matcher",
      "rootUri": "file:///Users/itrends/Develoment/flutter/.pub-cache/hosted/pub.dartlang.org/matcher-0.12.10",
      "packageUri": "lib/",
      "languageVersion": "2.12"
    },
    {
      "name": "meta",
      "rootUri": "file:///Users/itrends/Develoment/flutter/.pub-cache/hosted/pub.dartlang.org/meta-1.7.0",
      "packageUri": "lib/",
      "languageVersion": "2.12"
    },
    {
      "name": "nested",
      "rootUri": "file:///Users/itrends/Develoment/flutter/.pub-cache/hosted/pub.dartlang.org/nested-1.0.0",
      "packageUri": "lib/",
      "languageVersion": "2.12"
    },
    {
      "name": "octo_image",
      "rootUri": "file:///Users/itrends/Develoment/flutter/.pub-cache/hosted/pub.dartlang.org/octo_image-1.0.0+1",
      "packageUri": "lib/",
      "languageVersion": "2.12"
    },
    {
      "name": "package_info",
      "rootUri": "file:///Users/itrends/Develoment/flutter/.pub-cache/hosted/pub.dartlang.org/package_info-2.0.2",
      "packageUri": "lib/",
      "languageVersion": "2.12"
    },
    {
      "name": "path",
      "rootUri": "file:///Users/itrends/Develoment/flutter/.pub-cache/hosted/pub.dartlang.org/path-1.8.0",
      "packageUri": "lib/",
      "languageVersion": "2.12"
    },
    {
      "name": "path_drawing",
      "rootUri": "file:///Users/itrends/Develoment/flutter/.pub-cache/hosted/pub.dartlang.org/path_drawing-0.5.1",
      "packageUri": "lib/",
      "languageVersion": "2.12"
    },
    {
      "name": "path_parsing",
      "rootUri": "file:///Users/itrends/Develoment/flutter/.pub-cache/hosted/pub.dartlang.org/path_parsing-0.2.1",
      "packageUri": "lib/",
      "languageVersion": "2.12"
    },
    {
      "name": "path_provider",
      "rootUri": "file:///Users/itrends/Develoment/flutter/.pub-cache/hosted/pub.dartlang.org/path_provider-2.0.3",
      "packageUri": "lib/",
      "languageVersion": "2.12"
    },
    {
      "name": "path_provider_linux",
      "rootUri": "file:///Users/itrends/Develoment/flutter/.pub-cache/hosted/pub.dartlang.org/path_provider_linux-2.0.2",
      "packageUri": "lib/",
      "languageVersion": "2.12"
    },
    {
      "name": "path_provider_macos",
      "rootUri": "file:///Users/itrends/Develoment/flutter/.pub-cache/hosted/pub.dartlang.org/path_provider_macos-2.0.2",
      "packageUri": "lib/",
      "languageVersion": "2.12"
    },
    {
      "name": "path_provider_platform_interface",
      "rootUri": "file:///Users/itrends/Develoment/flutter/.pub-cache/hosted/pub.dartlang.org/path_provider_platform_interface-2.0.1",
      "packageUri": "lib/",
      "languageVersion": "2.12"
    },
    {
      "name": "path_provider_windows",
      "rootUri": "file:///Users/itrends/Develoment/flutter/.pub-cache/hosted/pub.dartlang.org/path_provider_windows-2.0.3",
      "packageUri": "lib/",
      "languageVersion": "2.12"
    },
    {
      "name": "pedantic",
      "rootUri": "file:///Users/itrends/Develoment/flutter/.pub-cache/hosted/pub.dartlang.org/pedantic-1.11.1",
      "packageUri": "lib/",
      "languageVersion": "2.12"
    },
    {
      "name": "petitparser",
      "rootUri": "file:///Users/itrends/Develoment/flutter/.pub-cache/hosted/pub.dartlang.org/petitparser-4.1.0",
      "packageUri": "lib/",
      "languageVersion": "2.12"
    },
    {
      "name": "platform",
      "rootUri": "file:///Users/itrends/Develoment/flutter/.pub-cache/hosted/pub.dartlang.org/platform-3.0.2",
      "packageUri": "lib/",
      "languageVersion": "2.12"
    },
    {
      "name": "plugin_platform_interface",
      "rootUri": "file:///Users/itrends/Develoment/flutter/.pub-cache/hosted/pub.dartlang.org/plugin_platform_interface-2.0.1",
      "packageUri": "lib/",
      "languageVersion": "2.12"
    },
    {
      "name": "pointycastle",
      "rootUri": "file:///Users/itrends/Develoment/flutter/.pub-cache/hosted/pub.dartlang.org/pointycastle-3.0.1",
      "packageUri": "lib/",
      "languageVersion": "2.12"
    },
    {
      "name": "process",
      "rootUri": "file:///Users/itrends/Develoment/flutter/.pub-cache/hosted/pub.dartlang.org/process-4.2.3",
      "packageUri": "lib/",
      "languageVersion": "2.12"
    },
    {
      "name": "provider",
      "rootUri": "file:///Users/itrends/Develoment/flutter/.pub-cache/hosted/pub.dartlang.org/provider-5.0.0",
      "packageUri": "lib/",
      "languageVersion": "2.12"
    },
    {
      "name": "random_string",
      "rootUri": "file:///Users/itrends/Develoment/flutter/.pub-cache/hosted/pub.dartlang.org/random_string-2.1.0",
      "packageUri": "lib/",
      "languageVersion": "2.1"
    },
    {
      "name": "rxdart",
      "rootUri": "file:///Users/itrends/Develoment/flutter/.pub-cache/hosted/pub.dartlang.org/rxdart-0.27.2",
      "packageUri": "lib/",
      "languageVersion": "2.12"
    },
    {
      "name": "sky_engine",
      "rootUri": "file:///Users/itrends/Develoment/flutter/bin/cache/pkg/sky_engine",
      "packageUri": "lib/",
      "languageVersion": "2.12"
    },
    {
      "name": "source_span",
      "rootUri": "file:///Users/itrends/Develoment/flutter/.pub-cache/hosted/pub.dartlang.org/source_span-1.8.1",
      "packageUri": "lib/",
      "languageVersion": "2.12"
    },
    {
      "name": "sqflite",
      "rootUri": "file:///Users/itrends/Develoment/flutter/.pub-cache/hosted/pub.dartlang.org/sqflite-2.0.0+4",
      "packageUri": "lib/",
      "languageVersion": "2.12"
    },
    {
      "name": "sqflite_common",
      "rootUri": "file:///Users/itrends/Develoment/flutter/.pub-cache/hosted/pub.dartlang.org/sqflite_common-2.0.1",
      "packageUri": "lib/",
      "languageVersion": "2.12"
    },
    {
      "name": "stack_trace",
      "rootUri": "file:///Users/itrends/Develoment/flutter/.pub-cache/hosted/pub.dartlang.org/stack_trace-1.10.0",
      "packageUri": "lib/",
      "languageVersion": "2.12"
    },
    {
      "name": "stream_channel",
      "rootUri": "file:///Users/itrends/Develoment/flutter/.pub-cache/hosted/pub.dartlang.org/stream_channel-2.1.0",
      "packageUri": "lib/",
      "languageVersion": "2.12"
    },
    {
      "name": "stream_transform",
      "rootUri": "file:///Users/itrends/Develoment/flutter/.pub-cache/hosted/pub.dartlang.org/stream_transform-2.0.0",
      "packageUri": "lib/",
      "languageVersion": "2.12"
    },
    {
      "name": "string_scanner",
      "rootUri": "file:///Users/itrends/Develoment/flutter/.pub-cache/hosted/pub.dartlang.org/string_scanner-1.1.0",
      "packageUri": "lib/",
      "languageVersion": "2.12"
    },
    {
      "name": "synchronized",
      "rootUri": "file:///Users/itrends/Develoment/flutter/.pub-cache/hosted/pub.dartlang.org/synchronized-3.0.0",
      "packageUri": "lib/",
      "languageVersion": "2.12"
    },
    {
      "name": "term_glyph",
      "rootUri": "file:///Users/itrends/Develoment/flutter/.pub-cache/hosted/pub.dartlang.org/term_glyph-1.2.0",
      "packageUri": "lib/",
      "languageVersion": "2.12"
    },
    {
      "name": "test_api",
      "rootUri": "file:///Users/itrends/Develoment/flutter/.pub-cache/hosted/pub.dartlang.org/test_api-0.4.2",
      "packageUri": "lib/",
      "languageVersion": "2.12"
    },
    {
      "name": "timezone",
      "rootUri": "file:///Users/itrends/Develoment/flutter/.pub-cache/hosted/pub.dartlang.org/timezone-0.7.0",
      "packageUri": "lib/",
      "languageVersion": "2.12"
    },
    {
      "name": "typed_data",
      "rootUri": "file:///Users/itrends/Develoment/flutter/.pub-cache/hosted/pub.dartlang.org/typed_data-1.3.0",
      "packageUri": "lib/",
      "languageVersion": "2.12"
    },
    {
      "name": "uuid",
      "rootUri": "file:///Users/itrends/Develoment/flutter/.pub-cache/hosted/pub.dartlang.org/uuid-3.0.4",
      "packageUri": "lib/",
      "languageVersion": "2.12"
    },
    {
      "name": "validators",
      "rootUri": "file:///Users/itrends/Develoment/flutter/.pub-cache/hosted/pub.dartlang.org/validators-2.0.1",
      "packageUri": "lib/",
      "languageVersion": "2.0"
    },
    {
      "name": "vector_math",
      "rootUri": "file:///Users/itrends/Develoment/flutter/.pub-cache/hosted/pub.dartlang.org/vector_math-2.1.0",
      "packageUri": "lib/",
      "languageVersion": "2.12"
    },
    {
      "name": "vin_decoder",
      "rootUri": "file:///Users/itrends/Develoment/flutter/.pub-cache/hosted/pub.dartlang.org/vin_decoder-0.1.4",
      "packageUri": "lib/",
      "languageVersion": "2.1"
    },
    {
      "name": "win32",
      "rootUri": "file:///Users/itrends/Develoment/flutter/.pub-cache/hosted/pub.dartlang.org/win32-2.2.8",
      "packageUri": "lib/",
      "languageVersion": "2.13"
    },
    {
      "name": "xdg_directories",
      "rootUri": "file:///Users/itrends/Develoment/flutter/.pub-cache/hosted/pub.dartlang.org/xdg_directories-0.2.0",
      "packageUri": "lib/",
      "languageVersion": "2.12"
    },
    {
      "name": "xml",
      "rootUri": "file:///Users/itrends/Develoment/flutter/.pub-cache/hosted/pub.dartlang.org/xml-5.1.2",
      "packageUri": "lib/",
      "languageVersion": "2.12"
    },
    {
      "name": "app_template",
      "rootUri": "../",
      "packageUri": "lib/",
      "languageVersion": "2.7"
    }
  ],
  "generated": "2021-11-25T11:24:37.249789Z",
  "generator": "pub",
  "generatorVersion": "2.14.2"
}
